{
  "version": 1,
  "timestamp": 1500985346407,
  "graph": {
    "options": {
      "directed": true,
      "multigraph": false,
      "compound": false
    },
    "nodes": [
      {
        "v": "atoms\\bold-text.mustache",
        "value": {
          "compileState": "clean",
          "lineagePath": "../../patterns/atoms-meta-group\\atoms-meta-group.rendered.html",
          "lineagePattern": "atoms-meta-group"
        }
      },
      {
        "v": "atoms\\bordered-box.mustache",
        "value": {
          "compileState": "clean"
        }
      },
      {
        "v": "atoms\\button.mustache",
        "value": {
          "compileState": "clean",
          "lineagePath": "../../patterns/organisms-product\\organisms-product.rendered.html",
          "lineagePattern": "organisms-product"
        }
      },
      {
        "v": "atoms\\facebook-icon.mustache",
        "value": {
          "compileState": "clean",
          "lineagePath": "../../patterns/organisms-footer\\organisms-footer.rendered.html",
          "lineagePattern": "organisms-footer"
        }
      },
      {
        "v": "atoms\\google-plus-icon.mustache",
        "value": {
          "compileState": "clean",
          "lineagePath": "../../patterns/organisms-footer\\organisms-footer.rendered.html",
          "lineagePattern": "organisms-footer"
        }
      },
      {
        "v": "atoms\\header.mustache",
        "value": {
          "compileState": "clean",
          "lineagePath": "../../patterns/organisms-orchard\\organisms-orchard.rendered.html",
          "lineagePattern": "organisms-orchard"
        }
      },
      {
        "v": "atoms\\hollow-button.mustache",
        "value": {
          "compileState": "clean",
          "lineagePath": "../../patterns/organisms-instagram-feed\\organisms-instagram-feed.rendered.html",
          "lineagePattern": "organisms-instagram-feed"
        }
      },
      {
        "v": "atoms\\hollow-header.mustache",
        "value": {
          "compileState": "clean"
        }
      },
      {
        "v": "atoms\\image-16-8.mustache",
        "value": {
          "compileState": "clean",
          "lineagePath": "../../patterns/molecules-hero\\molecules-hero.rendered.html",
          "lineagePattern": "molecules-hero"
        }
      },
      {
        "v": "atoms\\image-3-1.mustache",
        "value": {
          "compileState": "clean",
          "lineagePath": "../../patterns/molecules-split-hero\\molecules-split-hero.rendered.html",
          "lineagePattern": "molecules-split-hero"
        }
      },
      {
        "v": "atoms\\instagram-icon.mustache",
        "value": {
          "compileState": "clean",
          "lineagePath": "../../patterns/organisms-footer\\organisms-footer.rendered.html",
          "lineagePattern": "organisms-footer"
        }
      },
      {
        "v": "atoms\\italic-bold-text.mustache",
        "value": {
          "compileState": "clean"
        }
      },
      {
        "v": "atoms\\italic-header.mustache",
        "value": {
          "compileState": "clean",
          "lineagePath": "../../patterns/pages-checkout\\pages-checkout.rendered.html",
          "lineagePattern": "pages-checkout"
        }
      },
      {
        "v": "atoms\\italic-small-text.mustache",
        "value": {
          "compileState": "clean",
          "lineagePath": "../../patterns/organisms-orchard\\organisms-orchard.rendered.html",
          "lineagePattern": "organisms-orchard"
        }
      },
      {
        "v": "atoms\\italic-text.mustache",
        "value": {
          "compileState": "clean"
        }
      },
      {
        "v": "atoms\\leaf-header.mustache",
        "value": {
          "compileState": "clean",
          "lineagePath": "../../patterns/pages-our-story\\pages-our-story.rendered.html",
          "lineagePattern": "pages-our-story"
        }
      },
      {
        "v": "atoms\\linkedin-icon.mustache",
        "value": {
          "compileState": "clean",
          "lineagePath": "../../patterns/organisms-footer\\organisms-footer.rendered.html",
          "lineagePattern": "organisms-footer"
        }
      },
      {
        "v": "atoms\\logo-inverted.mustache",
        "value": {
          "compileState": "clean",
          "lineagePath": "../../patterns/organisms-footer\\organisms-footer.rendered.html",
          "lineagePattern": "organisms-footer"
        }
      },
      {
        "v": "atoms\\logo.mustache",
        "value": {
          "compileState": "clean",
          "lineagePath": "../../patterns/organisms-nav\\organisms-nav.rendered.html",
          "lineagePattern": "organisms-nav"
        }
      },
      {
        "v": "atoms\\map.mustache",
        "value": {
          "compileState": "clean",
          "lineagePath": "../../patterns/pages-dop-olive-oil-route\\pages-dop-olive-oil-route.rendered.html",
          "lineagePattern": "pages-dop-olive-oil-route"
        }
      },
      {
        "v": "atoms\\meta-group.mustache",
        "value": {
          "compileState": "clean",
          "lineagePath": "../../patterns/molecules-meta\\molecules-meta.rendered.html",
          "lineagePattern": "molecules-meta"
        }
      },
      {
        "v": "atoms\\pinterest-icon.mustache",
        "value": {
          "compileState": "clean",
          "lineagePath": "../../patterns/organisms-footer\\organisms-footer.rendered.html",
          "lineagePattern": "organisms-footer"
        }
      },
      {
        "v": "atoms\\serif-header.mustache",
        "value": {
          "compileState": "clean",
          "lineagePath": "../../patterns/pages-our-trees\\pages-our-trees.rendered.html",
          "lineagePattern": "pages-our-trees"
        }
      },
      {
        "v": "atoms\\small-text.mustache",
        "value": {
          "compileState": "clean",
          "lineagePath": "../../patterns/atoms-meta-group\\atoms-meta-group.rendered.html",
          "lineagePattern": "atoms-meta-group"
        }
      },
      {
        "v": "atoms\\square-image.mustache",
        "value": {
          "compileState": "clean",
          "lineagePath": "../../patterns/templates-grid-3-2\\templates-grid-3-2.rendered.html",
          "lineagePattern": "templates-grid-3-2"
        }
      },
      {
        "v": "atoms\\tab.mustache",
        "value": {
          "compileState": "clean",
          "lineagePath": "../../patterns/molecules-tabs\\molecules-tabs.rendered.html",
          "lineagePattern": "molecules-tabs"
        }
      },
      {
        "v": "atoms\\thick-bordered-box.mustache",
        "value": {
          "compileState": "clean"
        }
      },
      {
        "v": "atoms\\tree-icon.mustache",
        "value": {
          "compileState": "clean",
          "lineagePath": "../../patterns/organisms-orchard\\organisms-orchard.rendered.html",
          "lineagePattern": "organisms-orchard"
        }
      },
      {
        "v": "atoms\\twitter-icon.mustache",
        "value": {
          "compileState": "clean",
          "lineagePath": "../../patterns/organisms-footer\\organisms-footer.rendered.html",
          "lineagePattern": "organisms-footer"
        }
      },
      {
        "v": "atoms\\underline.mustache",
        "value": {
          "compileState": "clean",
          "lineagePath": "../../patterns/molecules-split-hero\\molecules-split-hero.rendered.html",
          "lineagePattern": "molecules-split-hero"
        }
      },
      {
        "v": "atoms\\uppercase-text.mustache",
        "value": {
          "compileState": "clean",
          "lineagePath": "../../patterns/organisms-nav\\organisms-nav.rendered.html",
          "lineagePattern": "organisms-nav"
        }
      },
      {
        "v": "atoms\\youtube-icon.mustache",
        "value": {
          "compileState": "clean",
          "lineagePath": "../../patterns/organisms-footer\\organisms-footer.rendered.html",
          "lineagePattern": "organisms-footer"
        }
      },
      {
        "v": "molecules\\card.mustache",
        "value": {
          "compileState": "clean",
          "lineagePath": "../../patterns/templates-product-grid\\templates-product-grid.rendered.html",
          "lineagePattern": "templates-product-grid"
        }
      },
      {
        "v": "molecules\\gmap.mustache",
        "value": {
          "compileState": "clean"
        }
      },
      {
        "v": "molecules\\hero.mustache",
        "value": {
          "compileState": "clean",
          "lineagePath": "../../patterns/pages-our-trees\\pages-our-trees.rendered.html",
          "lineagePattern": "pages-our-trees"
        }
      },
      {
        "v": "molecules\\meta.mustache",
        "value": {
          "compileState": "clean",
          "lineagePath": "../../patterns/organisms-product\\organisms-product.rendered.html",
          "lineagePattern": "organisms-product"
        }
      },
      {
        "v": "molecules\\split-hero.mustache",
        "value": {
          "compileState": "clean",
          "lineagePath": "../../patterns/pages-our-trees\\pages-our-trees.rendered.html",
          "lineagePattern": "pages-our-trees"
        }
      },
      {
        "v": "molecules\\tabs.mustache",
        "value": {
          "compileState": "clean",
          "lineagePath": "../../patterns/pages-dop-olive-oil-route\\pages-dop-olive-oil-route.rendered.html",
          "lineagePattern": "pages-dop-olive-oil-route"
        }
      },
      {
        "v": "organisms\\footer.mustache",
        "value": {
          "compileState": "clean",
          "lineagePath": "../../patterns/pages-our-trees\\pages-our-trees.rendered.html",
          "lineagePattern": "pages-our-trees"
        }
      },
      {
        "v": "organisms\\instagram-feed.mustache",
        "value": {
          "compileState": "clean",
          "lineagePath": "../../patterns/pages-our-story\\pages-our-story.rendered.html",
          "lineagePattern": "pages-our-story"
        }
      },
      {
        "v": "organisms\\nav.mustache",
        "value": {
          "compileState": "clean",
          "lineagePath": "../../patterns/pages-our-trees\\pages-our-trees.rendered.html",
          "lineagePattern": "pages-our-trees"
        }
      },
      {
        "v": "organisms\\orchard.mustache",
        "value": {
          "compileState": "clean",
          "lineagePath": "../../patterns/pages-landing\\pages-landing.rendered.html",
          "lineagePattern": "pages-landing"
        }
      },
      {
        "v": "organisms\\product-list.mustache",
        "value": {
          "compileState": "clean",
          "lineagePath": "../../patterns/pages-our-trees\\pages-our-trees.rendered.html",
          "lineagePattern": "pages-our-trees"
        }
      },
      {
        "v": "organisms\\product.mustache",
        "value": {
          "compileState": "clean",
          "lineagePath": "../../patterns/pages-checkout\\pages-checkout.rendered.html",
          "lineagePattern": "pages-checkout"
        }
      },
      {
        "v": "pages\\appartments.mustache",
        "value": {
          "compileState": "clean"
        }
      },
      {
        "v": "pages\\checkout.mustache",
        "value": {
          "compileState": "clean"
        }
      },
      {
        "v": "pages\\discover.mustache",
        "value": {
          "compileState": "clean"
        }
      },
      {
        "v": "pages\\dop-olive-oil-route.mustache",
        "value": {
          "compileState": "clean"
        }
      },
      {
        "v": "pages\\itineraries.mustache",
        "value": {
          "compileState": "clean"
        }
      },
      {
        "v": "pages\\landing.mustache",
        "value": {
          "compileState": "clean"
        }
      },
      {
        "v": "pages\\our-evo.mustache",
        "value": {
          "compileState": "clean"
        }
      },
      {
        "v": "pages\\our-story.mustache",
        "value": {
          "compileState": "clean"
        }
      },
      {
        "v": "pages\\our-trees.mustache",
        "value": {
          "compileState": "clean"
        }
      },
      {
        "v": "templates\\col-1.mustache",
        "value": {
          "compileState": "clean",
          "lineagePath": "../../patterns/pages-our-story\\pages-our-story.rendered.html",
          "lineagePattern": "pages-our-story"
        }
      },
      {
        "v": "templates\\col-2.mustache",
        "value": {
          "compileState": "clean",
          "lineagePath": "../../patterns/pages-our-evo\\pages-our-evo.rendered.html",
          "lineagePattern": "pages-our-evo"
        }
      },
      {
        "v": "templates\\grid-3-2.mustache",
        "value": {
          "compileState": "clean"
        }
      },
      {
        "v": "templates\\grid-6-2.mustache",
        "value": {
          "compileState": "clean",
          "lineagePath": "../../patterns/organisms-instagram-feed\\organisms-instagram-feed.rendered.html",
          "lineagePattern": "organisms-instagram-feed"
        }
      },
      {
        "v": "templates\\product-grid.mustache",
        "value": {
          "compileState": "clean"
        }
      },
      {
        "v": "C:\\Users\\akeem.faulkner\\IdeaProjects\\the-bespoke-harvest\\patterns\\source\\_meta\\_00-head.mustache",
        "value": {
          "compileState": null
        }
      },
      {
        "v": "C:\\Users\\akeem.faulkner\\IdeaProjects\\the-bespoke-harvest\\patterns\\source\\_meta\\_01-foot.mustache",
        "value": {
          "compileState": null
        }
      }
    ],
    "edges": [
      {
        "v": "atoms\\meta-group.mustache",
        "w": "atoms\\bold-text.mustache",
        "value": {}
      },
      {
        "v": "atoms\\meta-group.mustache",
        "w": "atoms\\small-text.mustache",
        "value": {}
      },
      {
        "v": "molecules\\card.mustache",
        "w": "atoms\\italic-header.mustache",
        "value": {}
      },
      {
        "v": "molecules\\card.mustache",
        "w": "atoms\\square-image.mustache",
        "value": {}
      },
      {
        "v": "molecules\\card.mustache",
        "w": "atoms\\hollow-button.mustache",
        "value": {}
      },
      {
        "v": "molecules\\hero.mustache",
        "w": "atoms\\image-16-8.mustache",
        "value": {}
      },
      {
        "v": "molecules\\hero.mustache",
        "w": "atoms\\header.mustache",
        "value": {}
      },
      {
        "v": "molecules\\hero.mustache",
        "w": "atoms\\italic-header.mustache",
        "value": {}
      },
      {
        "v": "molecules\\hero.mustache",
        "w": "atoms\\hollow-button.mustache",
        "value": {}
      },
      {
        "v": "molecules\\meta.mustache",
        "w": "atoms\\meta-group.mustache",
        "value": {}
      },
      {
        "v": "molecules\\split-hero.mustache",
        "w": "atoms\\image-3-1.mustache",
        "value": {}
      },
      {
        "v": "molecules\\split-hero.mustache",
        "w": "atoms\\header.mustache",
        "value": {}
      },
      {
        "v": "molecules\\split-hero.mustache",
        "w": "atoms\\italic-header.mustache",
        "value": {}
      },
      {
        "v": "molecules\\split-hero.mustache",
        "w": "atoms\\underline.mustache",
        "value": {}
      },
      {
        "v": "molecules\\tabs.mustache",
        "w": "atoms\\tab.mustache",
        "value": {}
      },
      {
        "v": "organisms\\footer.mustache",
        "w": "atoms\\logo-inverted.mustache",
        "value": {}
      },
      {
        "v": "organisms\\footer.mustache",
        "w": "atoms\\facebook-icon.mustache",
        "value": {}
      },
      {
        "v": "organisms\\footer.mustache",
        "w": "atoms\\twitter-icon.mustache",
        "value": {}
      },
      {
        "v": "organisms\\footer.mustache",
        "w": "atoms\\instagram-icon.mustache",
        "value": {}
      },
      {
        "v": "organisms\\footer.mustache",
        "w": "atoms\\pinterest-icon.mustache",
        "value": {}
      },
      {
        "v": "organisms\\footer.mustache",
        "w": "atoms\\linkedin-icon.mustache",
        "value": {}
      },
      {
        "v": "organisms\\footer.mustache",
        "w": "atoms\\youtube-icon.mustache",
        "value": {}
      },
      {
        "v": "organisms\\footer.mustache",
        "w": "atoms\\google-plus-icon.mustache",
        "value": {}
      },
      {
        "v": "templates\\grid-6-2.mustache",
        "w": "atoms\\square-image.mustache",
        "value": {}
      },
      {
        "v": "organisms\\instagram-feed.mustache",
        "w": "atoms\\header.mustache",
        "value": {}
      },
      {
        "v": "organisms\\instagram-feed.mustache",
        "w": "templates\\grid-6-2.mustache",
        "value": {}
      },
      {
        "v": "organisms\\instagram-feed.mustache",
        "w": "atoms\\hollow-button.mustache",
        "value": {}
      },
      {
        "v": "organisms\\nav.mustache",
        "w": "atoms\\logo.mustache",
        "value": {}
      },
      {
        "v": "organisms\\nav.mustache",
        "w": "atoms\\uppercase-text.mustache",
        "value": {}
      },
      {
        "v": "organisms\\orchard.mustache",
        "w": "atoms\\header.mustache",
        "value": {}
      },
      {
        "v": "organisms\\orchard.mustache",
        "w": "atoms\\tree-icon.mustache",
        "value": {}
      },
      {
        "v": "organisms\\orchard.mustache",
        "w": "atoms\\italic-small-text.mustache",
        "value": {}
      },
      {
        "v": "organisms\\product-list.mustache",
        "w": "molecules\\card.mustache",
        "value": {}
      },
      {
        "v": "organisms\\product.mustache",
        "w": "atoms\\square-image.mustache",
        "value": {}
      },
      {
        "v": "organisms\\product.mustache",
        "w": "atoms\\button.mustache",
        "value": {}
      },
      {
        "v": "organisms\\product.mustache",
        "w": "molecules\\meta.mustache",
        "value": {}
      },
      {
        "v": "pages\\appartments.mustache",
        "w": "organisms\\nav.mustache",
        "value": {}
      },
      {
        "v": "pages\\appartments.mustache",
        "w": "molecules\\split-hero.mustache",
        "value": {}
      },
      {
        "v": "pages\\appartments.mustache",
        "w": "molecules\\hero.mustache",
        "value": {}
      },
      {
        "v": "pages\\appartments.mustache",
        "w": "organisms\\footer.mustache",
        "value": {}
      },
      {
        "v": "pages\\checkout.mustache",
        "w": "organisms\\nav.mustache",
        "value": {}
      },
      {
        "v": "pages\\checkout.mustache",
        "w": "molecules\\split-hero.mustache",
        "value": {}
      },
      {
        "v": "pages\\checkout.mustache",
        "w": "atoms\\italic-header.mustache",
        "value": {}
      },
      {
        "v": "pages\\checkout.mustache",
        "w": "organisms\\product.mustache",
        "value": {}
      },
      {
        "v": "pages\\checkout.mustache",
        "w": "molecules\\hero.mustache",
        "value": {}
      },
      {
        "v": "pages\\checkout.mustache",
        "w": "organisms\\instagram-feed.mustache",
        "value": {}
      },
      {
        "v": "pages\\checkout.mustache",
        "w": "organisms\\footer.mustache",
        "value": {}
      },
      {
        "v": "templates\\col-2.mustache",
        "w": "atoms\\square-image.mustache",
        "value": {}
      },
      {
        "v": "pages\\discover.mustache",
        "w": "organisms\\nav.mustache",
        "value": {}
      },
      {
        "v": "pages\\discover.mustache",
        "w": "molecules\\split-hero.mustache",
        "value": {}
      },
      {
        "v": "pages\\discover.mustache",
        "w": "atoms\\serif-header.mustache",
        "value": {}
      },
      {
        "v": "pages\\discover.mustache",
        "w": "templates\\col-2.mustache",
        "value": {}
      },
      {
        "v": "pages\\discover.mustache",
        "w": "molecules\\hero.mustache",
        "value": {}
      },
      {
        "v": "pages\\discover.mustache",
        "w": "organisms\\instagram-feed.mustache",
        "value": {}
      },
      {
        "v": "pages\\discover.mustache",
        "w": "organisms\\footer.mustache",
        "value": {}
      },
      {
        "v": "pages\\dop-olive-oil-route.mustache",
        "w": "organisms\\nav.mustache",
        "value": {}
      },
      {
        "v": "pages\\dop-olive-oil-route.mustache",
        "w": "molecules\\split-hero.mustache",
        "value": {}
      },
      {
        "v": "pages\\dop-olive-oil-route.mustache",
        "w": "atoms\\map.mustache",
        "value": {}
      },
      {
        "v": "pages\\dop-olive-oil-route.mustache",
        "w": "molecules\\tabs.mustache",
        "value": {}
      },
      {
        "v": "pages\\dop-olive-oil-route.mustache",
        "w": "molecules\\hero.mustache",
        "value": {}
      },
      {
        "v": "pages\\dop-olive-oil-route.mustache",
        "w": "organisms\\instagram-feed.mustache",
        "value": {}
      },
      {
        "v": "pages\\dop-olive-oil-route.mustache",
        "w": "organisms\\footer.mustache",
        "value": {}
      },
      {
        "v": "pages\\itineraries.mustache",
        "w": "organisms\\nav.mustache",
        "value": {}
      },
      {
        "v": "pages\\itineraries.mustache",
        "w": "molecules\\split-hero.mustache",
        "value": {}
      },
      {
        "v": "pages\\itineraries.mustache",
        "w": "molecules\\hero.mustache",
        "value": {}
      },
      {
        "v": "pages\\itineraries.mustache",
        "w": "organisms\\footer.mustache",
        "value": {}
      },
      {
        "v": "pages\\landing.mustache",
        "w": "organisms\\nav.mustache",
        "value": {}
      },
      {
        "v": "pages\\landing.mustache",
        "w": "molecules\\split-hero.mustache",
        "value": {}
      },
      {
        "v": "pages\\landing.mustache",
        "w": "organisms\\orchard.mustache",
        "value": {}
      },
      {
        "v": "pages\\landing.mustache",
        "w": "molecules\\hero.mustache",
        "value": {}
      },
      {
        "v": "pages\\landing.mustache",
        "w": "organisms\\instagram-feed.mustache",
        "value": {}
      },
      {
        "v": "pages\\landing.mustache",
        "w": "organisms\\footer.mustache",
        "value": {}
      },
      {
        "v": "pages\\our-evo.mustache",
        "w": "organisms\\nav.mustache",
        "value": {}
      },
      {
        "v": "pages\\our-evo.mustache",
        "w": "molecules\\split-hero.mustache",
        "value": {}
      },
      {
        "v": "pages\\our-evo.mustache",
        "w": "atoms\\serif-header.mustache",
        "value": {}
      },
      {
        "v": "pages\\our-evo.mustache",
        "w": "templates\\col-2.mustache",
        "value": {}
      },
      {
        "v": "pages\\our-evo.mustache",
        "w": "molecules\\hero.mustache",
        "value": {}
      },
      {
        "v": "pages\\our-evo.mustache",
        "w": "organisms\\instagram-feed.mustache",
        "value": {}
      },
      {
        "v": "pages\\our-evo.mustache",
        "w": "organisms\\footer.mustache",
        "value": {}
      },
      {
        "v": "templates\\col-1.mustache",
        "w": "atoms\\square-image.mustache",
        "value": {}
      },
      {
        "v": "pages\\our-story.mustache",
        "w": "organisms\\nav.mustache",
        "value": {}
      },
      {
        "v": "pages\\our-story.mustache",
        "w": "molecules\\split-hero.mustache",
        "value": {}
      },
      {
        "v": "pages\\our-story.mustache",
        "w": "atoms\\leaf-header.mustache",
        "value": {}
      },
      {
        "v": "pages\\our-story.mustache",
        "w": "templates\\col-1.mustache",
        "value": {}
      },
      {
        "v": "pages\\our-story.mustache",
        "w": "molecules\\hero.mustache",
        "value": {}
      },
      {
        "v": "pages\\our-story.mustache",
        "w": "organisms\\instagram-feed.mustache",
        "value": {}
      },
      {
        "v": "pages\\our-story.mustache",
        "w": "organisms\\footer.mustache",
        "value": {}
      },
      {
        "v": "pages\\our-trees.mustache",
        "w": "organisms\\nav.mustache",
        "value": {}
      },
      {
        "v": "pages\\our-trees.mustache",
        "w": "molecules\\split-hero.mustache",
        "value": {}
      },
      {
        "v": "pages\\our-trees.mustache",
        "w": "atoms\\serif-header.mustache",
        "value": {}
      },
      {
        "v": "pages\\our-trees.mustache",
        "w": "organisms\\product-list.mustache",
        "value": {}
      },
      {
        "v": "pages\\our-trees.mustache",
        "w": "molecules\\hero.mustache",
        "value": {}
      },
      {
        "v": "pages\\our-trees.mustache",
        "w": "organisms\\footer.mustache",
        "value": {}
      },
      {
        "v": "templates\\grid-3-2.mustache",
        "w": "atoms\\square-image.mustache",
        "value": {}
      },
      {
        "v": "templates\\product-grid.mustache",
        "w": "molecules\\card.mustache",
        "value": {}
      }
    ]
  }
}
